{
  "albums": {
    "href": "https://api.spotify.com/v1/browse/new-releases?country=SE&offset=5&limit=2",
    "items": [
      {
        "album_type": "single",
        "artists": [
          {
            "external_urls": {
              "spotify": "https://open.spotify.com/artist/3Utd6WFwBcRb2Piu9boAGm"
            },
            "href": "https://api.spotify.com/v1/artists/3Utd6WFwBcRb2Piu9boAGm",
            "id": "3Utd6WFwBcRb2Piu9boAGm",
            "name": "Klara Keller",
            "type": "artist",
            "uri": "spotify:artist:3Utd6WFwBcRb2Piu9boAGm"
          }
        ],
        "available_markets": [
          "AD",
          "AE",
          "AR",
          "AT",
          "AU",
          "BE",
          "BG",
          "BH",
          "BO",
          "BR",
          "CA",
          "CH",
          "CL",
          "CO",
          "CR",
          "CY",
          "CZ",
          "DE",
          "DK",
          "DO",
          "DZ",
          "EC",
          "EE",
          "EG",
          "ES",
          "FI",
          "FR",
          "GB",
          "GR",
          "GT",
          "HK",
          "HN",
          "HU",
          "ID",
          "IE",
          "IL",
          "IN",
          "IS",
          "IT",
          "JO",
          "JP",
          "KW",
          "LB",
          "LI",
          "LT",
          "LU",
          "LV",
          "MA",
          "MC",
          "MT",
          "MX",
          "MY",
          "NI",
          "NL",
          "NO",
          "NZ",
          "OM",
          "PA",
          "PE",
          "PH",
          "PL",
          "PS",
          "PT",
          "PY",
          "QA",
          "RO",
          "SA",
          "SE",
          "SG",
          "SK",
          "SV",
          "TH",
          "TN",
          "TR",
          "TW",
          "US",
          "UY",
          "VN",
          "ZA"
        ],
        "external_urls": {
          "spotify": "https://open.spotify.com/album/6aObPFoH7lnR0H6ghvItgg"
        },
        "href": "https://api.spotify.com/v1/albums/6aObPFoH7lnR0H6ghvItgg",
        "id": "6aObPFoH7lnR0H6ghvItgg",
        "images": [
          {
            "height": 640,
            "url": "https://i.scdn.co/image/ab67616d0000b273d947418cca5e28ca9cf6a3ac",
            "width": 640
          },
          {
            "height": 300,
            "url": "https://i.scdn.co/image/ab67616d00001e02d947418cca5e28ca9cf6a3ac",
            "width": 300
          },
          {
            "height": 64,
            "url": "https://i.scdn.co/image/ab67616d00004851d947418cca5e28ca9cf6a3ac",
            "width": 64
          }
        ],
        "name": "Hellre Ingen Alls Än Misslyckad",
        "release_date": "2020-04-17",
        "release_date_precision": "day",
        "total_tracks": 1,
        "type": "album",
        "uri": "spotify:album:6aObPFoH7lnR0H6ghvItgg"
      },
      {
        "album_type": "single",
        "artists": [
          {
            "external_urls": {
              "spotify": "https://open.spotify.com/artist/3DbI3fZ6rjnVdNMvIehZYo"
            },
            "href": "https://api.spotify.com/v1/artists/3DbI3fZ6rjnVdNMvIehZYo",
            "id": "3DbI3fZ6rjnVdNMvIehZYo",
            "name": "Naliyah",
            "type": "artist",
            "uri": "spotify:artist:3DbI3fZ6rjnVdNMvIehZYo"
          }
        ],
        "available_markets": [
          "AD",
          "AE",
          "AR",
          "AT",
          "AU",
          "BE",
          "BG",
          "BH",
          "BO",
          "BR",
          "CA",
          "CH",
          "CL",
          "CO",
          "CR",
          "CY",
          "CZ",
          "DE",
          "DK",
          "DO",
          "DZ",
          "EC",
          "EE",
          "EG",
          "ES",
          "FI",
          "FR",
          "GB",
          "GR",
          "GT",
          "HK",
          "HN",
          "HU",
          "ID",
          "IE",
          "IL",
          "IN",
          "IS",
          "IT",
          "JO",
          "JP",
          "KW",
          "LB",
          "LI",
          "LT",
          "LU",
          "LV",
          "MA",
          "MC",
          "MT",
          "MX",
          "MY",
          "NI",
          "NL",
          "NO",
          "NZ",
          "OM",
          "PA",
          "PE",
          "PH",
          "PL",
          "PS",
          "PT",
          "PY",
          "QA",
          "RO",
          "SA",
          "SE",
          "SG",
          "SK",
          "SV",
          "TH",
          "TN",
          "TR",
          "TW",
          "US",
          "UY",
          "VN",
          "ZA"
        ],
        "external_urls": {
          "spotify": "https://open.spotify.com/album/3KIsrUW55UFc4qrkGNxXXS"
        },
        "href": "https://api.spotify.com/v1/albums/3KIsrUW55UFc4qrkGNxXXS",
        "id": "3KIsrUW55UFc4qrkGNxXXS",
        "images": [
          {
            "height": 640,
            "url": "https://i.scdn.co/image/ab67616d0000b273559a55981df056799bca2d28",
            "width": 640
          },
          {
            "height": 300,
            "url": "https://i.scdn.co/image/ab67616d00001e02559a55981df056799bca2d28",
            "width": 300
          },
          {
            "height": 64,
            "url": "https://i.scdn.co/image/ab67616d00004851559a55981df056799bca2d28",
            "width": 64
          }
        ],
        "name": "Show Me Love",
        "release_date": "2020-04-17",
        "release_date_precision": "day",
        "total_tracks": 1,
        "type": "album",
        "uri": "spotify:album:3KIsrUW55UFc4qrkGNxXXS"
      }
    ],
    "limit": 2,
    "next": "https://api.spotify.com/v1/browse/new-releases?country=SE&offset=7&limit=2",
    "offset": 5,
    "previous": "https://api.spotify.com/v1/browse/new-releases?country=SE&offset=3&limit=2",
    "total": 100
  }
}