{
  "albums" : {
    "href" : "https://api.spotify.com/v1/browse/new-releases?offset=0&limit=20",
    "items" : [ {
      "album_type" : "album",
      "artists" : [ {
        "external_urls" : {
          "spotify" : "https://open.spotify.com/artist/6jJ0s89eD6GaHleKKya26X"
        },
        "href" : "https://api.spotify.com/v1/artists/6jJ0s89eD6GaHleKKya26X",
        "id" : "6jJ0s89eD6GaHleKKya26X",
        "name" : "Katy Perry",
        "type" : "artist",
        "uri" : "spotify:artist:6jJ0s89eD6GaHleKKya26X"
      } ],
      "available_markets" : [ "CA", "MX", "US" ],
      "external_urls" : {
        "spotify" : "https://open.spotify.com/album/34bapzNG3Mtwvp6kajrmOT"
      },
      "href" : "https://api.spotify.com/v1/albums/34bapzNG3Mtwvp6kajrmOT",
      "id" : "34bapzNG3Mtwvp6kajrmOT",
      "images" : [ {
        "height" : 640,
        "url" : "https://i.scdn.co/image/42f0c6ed7f61bcb5f48fc19f92848c4db6d377a9",
        "width" : 640
      }, {
        "height" : 300,
        "url" : "https://i.scdn.co/image/0c1e4a1e3d66a61e6c64041634d5f4ff1f8bc6e0",
        "width" : 300
      }, {
        "height" : 64,
        "url" : "https://i.scdn.co/image/9188e3e1842827432798582ade69685c7388b1ae",
        "width" : 64
      } ],
      "name" : "Witness",
      "type" : "album",
      "uri" : "spotify:album:34bapzNG3Mtwvp6kajrmOT"
    }, {
      "album_type" : "single",
      "artists" : [ {
        "external_urls" : {
          "spotify" : "https://open.spotify.com/artist/1Cs0zKBU1kc0i8ypK3B9ai"
        },
        "href" : "https://api.spotify.com/v1/artists/1Cs0zKBU1kc0i8ypK3B9ai",
        "id" : "1Cs0zKBU1kc0i8ypK3B9ai",
        "name" : "David Guetta",
        "type" : "artist",
        "uri" : "spotify:artist:1Cs0zKBU1kc0i8ypK3B9ai"
      } ],
      "available_markets" : [ "CA", "MX", "US" ],
      "external_urls" : {
        "spotify" : "https://open.spotify.com/album/0EYVu7ginQ5nPsQj3woBAQ"
      },
      "href" : "https://api.spotify.com/v1/albums/0EYVu7ginQ5nPsQj3woBAQ",
      "id" : "0EYVu7ginQ5nPsQj3woBAQ",
      "images" : [ {
        "height" : 640,
        "url" : "https://i.scdn.co/image/a22859e63b13a4794de56084d458e78e0bc95a57",
        "width" : 640
      }, {
        "height" : 300,
        "url" : "https://i.scdn.co/image/da49b5bdd4f3f27b3d60b20ca6f442b31d9a8118",
        "width" : 300
      }, {
        "height" : 64,
        "url" : "https://i.scdn.co/image/7f239d32a4c1cfd72f651b6dbf423b5d88983cd9",
        "width" : 64
      } ],
      "name" : "2U",
      "type" : "album",
      "uri" : "spotify:album:0EYVu7ginQ5nPsQj3woBAQ"
    }, {
      "album_type" : "album",
      "artists" : [ {
        "external_urls" : {
          "spotify" : "https://open.spotify.com/artist/1xU878Z1QtBldR7ru9owdU"
        },
        "href" : "https://api.spotify.com/v1/artists/1xU878Z1QtBldR7ru9owdU",
        "id" : "1xU878Z1QtBldR7ru9owdU",
        "name" : "Phoenix",
        "type" : "artist",
        "uri" : "spotify:artist:1xU878Z1QtBldR7ru9owdU"
      } ],
      "available_markets" : [ "CA", "US" ],
      "external_urls" : {
        "spotify" : "https://open.spotify.com/album/08rZ2mw2qwx60vOJtozqbh"
      },
      "href" : "https://api.spotify.com/v1/albums/08rZ2mw2qwx60vOJtozqbh",
      "id" : "08rZ2mw2qwx60vOJtozqbh",
      "images" : [ {
        "height" : 640,
        "url" : "https://i.scdn.co/image/89c1b3eecf74e3924971c713a425678bbbd54842",
        "width" : 640
      }, {
        "height" : 300,
        "url" : "https://i.scdn.co/image/7545f44fa4e884e6b24d6d579d953aa0a2ad81ee",
        "width" : 300
      }, {
        "height" : 64,
        "url" : "https://i.scdn.co/image/52eb4fcca169af9c87c2f3cd3a55904aaa1e7d29",
        "width" : 64
      } ],
      "name" : "Ti Amo",
      "type" : "album",
      "uri" : "spotify:album:08rZ2mw2qwx60vOJtozqbh"
    }, {
      "album_type" : "album",
      "artists" : [ {
        "external_urls" : {
          "spotify" : "https://open.spotify.com/artist/7tYKF4w9nC0nq9CsPZTHyP"
        },
        "href" : "https://api.spotify.com/v1/artists/7tYKF4w9nC0nq9CsPZTHyP",
        "id" : "7tYKF4w9nC0nq9CsPZTHyP",
        "name" : "SZA",
        "type" : "artist",
        "uri" : "spotify:artist:7tYKF4w9nC0nq9CsPZTHyP"
      } ],
      "available_markets" : [ "AD", "AR", "AT", "AU", "BE", "BG", "BO", "BR", "CA", "CH", "CL", "CO", "CR", "CY", "CZ", "DE", "DK", "DO", "EC", "EE", "ES", "FI", "FR", "GB", "GR", "GT", "HK", "HN", "HU", "ID", "IE", "IS", "IT", "JP", "LI", "LT", "LU", "LV", "MC", "MT", "MX", "MY", "NI", "NL", "NO", "NZ", "PA", "PE", "PH", "PL", "PT", "PY", "SE", "SG", "SK", "SV", "TR", "TW", "US", "UY" ],
      "external_urls" : {
        "spotify" : "https://open.spotify.com/album/76290XdXVF9rPzGdNRWdCh"
      },
      "href" : "https://api.spotify.com/v1/albums/76290XdXVF9rPzGdNRWdCh",
      "id" : "76290XdXVF9rPzGdNRWdCh",
      "images" : [ {
        "height" : 640,
        "url" : "https://i.scdn.co/image/056d5d03db611ad1b9f00b1c3d19b7acf989b62e",
        "width" : 640
      }, {
        "height" : 300,
        "url" : "https://i.scdn.co/image/858107cdf591e0257617a751f331f7bc1debcfca",
        "width" : 300
      }, {
        "height" : 64,
        "url" : "https://i.scdn.co/image/160e5177a2c4a63d04f94f848fe88f0f3dbe871c",
        "width" : 64
      } ],
      "name" : "Ctrl",
      "type" : "album",
      "uri" : "spotify:album:76290XdXVF9rPzGdNRWdCh"
    }, {
      "album_type" : "album",
      "artists" : [ {
        "external_urls" : {
          "spotify" : "https://open.spotify.com/artist/6s22t5Y3prQHyaHWUN1R1C"
        },
        "href" : "https://api.spotify.com/v1/artists/6s22t5Y3prQHyaHWUN1R1C",
        "id" : "6s22t5Y3prQHyaHWUN1R1C",
        "name" : "AJR",
        "type" : "artist",
        "uri" : "spotify:artist:6s22t5Y3prQHyaHWUN1R1C"
      } ],
      "available_markets" : [ "US" ],
      "external_urls" : {
        "spotify" : "https://open.spotify.com/album/6hpiZXzsZxlkTXY8zavu3N"
      },
      "href" : "https://api.spotify.com/v1/albums/6hpiZXzsZxlkTXY8zavu3N",
      "id" : "6hpiZXzsZxlkTXY8zavu3N",
      "images" : [ {
        "height" : 640,
        "url" : "https://i.scdn.co/image/79b4ce3c6c0f88e0c3a12bfd7fb49b02568459f7",
        "width" : 640
      }, {
        "height" : 300,
        "url" : "https://i.scdn.co/image/f51328284c20a6bd02d58e2752b453da76c4b263",
        "width" : 300
      }, {
        "height" : 64,
        "url" : "https://i.scdn.co/image/004a17055ccba2aea9e10f12d10abd6653dca955",
        "width" : 64
      } ],
      "name" : "The Click",
      "type" : "album",
      "uri" : "spotify:album:6hpiZXzsZxlkTXY8zavu3N"
    }, {
      "album_type" : "album",
      "artists" : [ {
        "external_urls" : {
          "spotify" : "https://open.spotify.com/artist/6Wr3hh341P84m3EI8qdn9O"
        },
        "href" : "https://api.spotify.com/v1/artists/6Wr3hh341P84m3EI8qdn9O",
        "id" : "6Wr3hh341P84m3EI8qdn9O",
        "name" : "Rise Against",
        "type" : "artist",
        "uri" : "spotify:artist:6Wr3hh341P84m3EI8qdn9O"
      } ],
      "available_markets" : [ "CA", "MX", "US" ],
      "external_urls" : {
        "spotify" : "https://open.spotify.com/album/4sz6Fn4BYORRLIc1AvQwQx"
      },
      "href" : "https://api.spotify.com/v1/albums/4sz6Fn4BYORRLIc1AvQwQx",
      "id" : "4sz6Fn4BYORRLIc1AvQwQx",
      "images" : [ {
        "height" : 640,
        "url" : "https://i.scdn.co/image/60008e46598d78631331045938dc156676b0d50b",
        "width" : 640
      }, {
        "height" : 300,
        "url" : "https://i.scdn.co/image/ea2102f2d8df048f18d0a9434d39c8a74cdf2e4c",
        "width" : 300
      }, {
        "height" : 64,
        "url" : "https://i.scdn.co/image/2680311ed39053498416a8f258b2ec0eb616cf30",
        "width" : 64
      } ],
      "name" : "Wolves",
      "type" : "album",
      "uri" : "spotify:album:4sz6Fn4BYORRLIc1AvQwQx"
    }, {
      "album_type" : "single",
      "artists" : [ {
        "external_urls" : {
          "spotify" : "https://open.spotify.com/artist/5WUlDfRSoLAfcVSX1WnrxN"
        },
        "href" : "https://api.spotify.com/v1/artists/5WUlDfRSoLAfcVSX1WnrxN",
        "id" : "5WUlDfRSoLAfcVSX1WnrxN",
        "name" : "Sia",
        "type" : "artist",
        "uri" : "spotify:artist:5WUlDfRSoLAfcVSX1WnrxN"
      } ],
      "available_markets" : [ "AD", "AR", "AT", "AU", "BE", "BG", "BO", "BR", "CA", "CH", "CL", "CO", "CR", "CY", "CZ", "DE", "DK", "DO", "EC", "EE", "ES", "FI", "FR", "GB", "GR", "GT", "HK", "HN", "HU", "ID", "IE", "IS", "IT", "JP", "LI", "LT", "LU", "LV", "MC", "MT", "MX", "MY", "NI", "NL", "NO", "NZ", "PA", "PE", "PH", "PL", "PT", "PY", "SE", "SG", "SK", "SV", "TR", "TW", "US", "UY" ],
      "external_urls" : {
        "spotify" : "https://open.spotify.com/album/4FFE30tFDFOFeSCHeR49C0"
      },
      "href" : "https://api.spotify.com/v1/albums/4FFE30tFDFOFeSCHeR49C0",
      "id" : "4FFE30tFDFOFeSCHeR49C0",
      "images" : [ {
        "height" : 640,
        "url" : "https://i.scdn.co/image/5ff185570e4e7fd6570a21fcd7bd5f6c66730795",
        "width" : 640
      }, {
        "height" : 300,
        "url" : "https://i.scdn.co/image/84896c3f9abe925290c21fcc06c251d16a2b8452",
        "width" : 300
      }, {
        "height" : 64,
        "url" : "https://i.scdn.co/image/41fe5e29c1ce592647786bf34dd29688c8c523bd",
        "width" : 64
      } ],
      "name" : "Free Me",
      "type" : "album",
      "uri" : "spotify:album:4FFE30tFDFOFeSCHeR49C0"
    }, {
      "album_type" : "album",
      "artists" : [ {
        "external_urls" : {
          "spotify" : "https://open.spotify.com/artist/74cb3MG0x0BOnYNW1uXYnM"
        },
        "href" : "https://api.spotify.com/v1/artists/74cb3MG0x0BOnYNW1uXYnM",
        "id" : "74cb3MG0x0BOnYNW1uXYnM",
        "name" : "Hillsong United",
        "type" : "artist",
        "uri" : "spotify:artist:74cb3MG0x0BOnYNW1uXYnM"
      } ],
      "available_markets" : [ "CA", "US" ],
      "external_urls" : {
        "spotify" : "https://open.spotify.com/album/5ZWmzqJe0RH6HdT4ntNaX2"
      },
      "href" : "https://api.spotify.com/v1/albums/5ZWmzqJe0RH6HdT4ntNaX2",
      "id" : "5ZWmzqJe0RH6HdT4ntNaX2",
      "images" : [ {
        "height" : 640,
        "url" : "https://i.scdn.co/image/5fe849a78065679525403ab2b22e55c52453f113",
        "width" : 640
      }, {
        "height" : 300,
        "url" : "https://i.scdn.co/image/9be958f78bd8aa6af9689d217e7357c69945f00b",
        "width" : 300
      }, {
        "height" : 64,
        "url" : "https://i.scdn.co/image/84e20466c7049b05547706b1153245ebbb9e02cb",
        "width" : 64
      } ],
      "name" : "Wonder",
      "type" : "album",
      "uri" : "spotify:album:5ZWmzqJe0RH6HdT4ntNaX2"
    }, {
      "album_type" : "single",
      "artists" : [ {
        "external_urls" : {
          "spotify" : "https://open.spotify.com/artist/5Pwc4xIPtQLFEnJriah9YJ"
        },
        "href" : "https://api.spotify.com/v1/artists/5Pwc4xIPtQLFEnJriah9YJ",
        "id" : "5Pwc4xIPtQLFEnJriah9YJ",
        "name" : "OneRepublic",
        "type" : "artist",
        "uri" : "spotify:artist:5Pwc4xIPtQLFEnJriah9YJ"
      }, {
        "external_urls" : {
          "spotify" : "https://open.spotify.com/artist/1HcAkAeL4xf02wzAnl7mIV"
        },
        "href" : "https://api.spotify.com/v1/artists/1HcAkAeL4xf02wzAnl7mIV",
        "id" : "1HcAkAeL4xf02wzAnl7mIV",
        "name" : "Michael Brun",
        "type" : "artist",
        "uri" : "spotify:artist:1HcAkAeL4xf02wzAnl7mIV"
      } ],
      "available_markets" : [ "CA", "MX", "US" ],
      "external_urls" : {
        "spotify" : "https://open.spotify.com/album/4kpdkBd8w2WtIdr3Fwyk8n"
      },
      "href" : "https://api.spotify.com/v1/albums/4kpdkBd8w2WtIdr3Fwyk8n",
      "id" : "4kpdkBd8w2WtIdr3Fwyk8n",
      "images" : [ {
        "height" : 640,
        "url" : "https://i.scdn.co/image/ed859bdf5adb010936ad21adb02f6deb45bab965",
        "width" : 640
      }, {
        "height" : 300,
        "url" : "https://i.scdn.co/image/8eac339ac4949f6b4f9fe12ed3e45ddea2d4d6d0",
        "width" : 300
      }, {
        "height" : 64,
        "url" : "https://i.scdn.co/image/bb138e6e7cbcf602e5ed747e0a67e2eaa84a39fa",
        "width" : 64
      } ],
      "name" : "Lift Me Up (Michael Brun Remix)",
      "type" : "album",
      "uri" : "spotify:album:4kpdkBd8w2WtIdr3Fwyk8n"
    }, {
      "album_type" : "single",
      "artists" : [ {
        "external_urls" : {
          "spotify" : "https://open.spotify.com/artist/3RqBeV12Tt7A8xH3zBDDUF"
        },
        "href" : "https://api.spotify.com/v1/artists/3RqBeV12Tt7A8xH3zBDDUF",
        "id" : "3RqBeV12Tt7A8xH3zBDDUF",
        "name" : "Kelsea Ballerini",
        "type" : "artist",
        "uri" : "spotify:artist:3RqBeV12Tt7A8xH3zBDDUF"
      } ],
      "available_markets" : [ "AD", "AR", "AT", "BE", "BG", "BO", "BR", "CA", "CH", "CL", "CO", "CR", "CZ", "DE", "DK", "DO", "EC", "EE", "ES", "FI", "FR", "GR", "GT", "HN", "HU", "IS", "IT", "JP", "LI", "LT", "LU", "LV", "MC", "MT", "MX", "NI", "NL", "NO", "PA", "PE", "PL", "PT", "PY", "SE", "SK", "SV", "US", "UY" ],
      "external_urls" : {
        "spotify" : "https://open.spotify.com/album/3G8EJnYyzkWwAVmNccRvF5"
      },
      "href" : "https://api.spotify.com/v1/albums/3G8EJnYyzkWwAVmNccRvF5",
      "id" : "3G8EJnYyzkWwAVmNccRvF5",
      "images" : [ {
        "height" : 640,
        "url" : "https://i.scdn.co/image/43ba659c2f1dbc1dfa7c5330c863a774e8c48a9c",
        "width" : 640
      }, {
        "height" : 300,
        "url" : "https://i.scdn.co/image/149e4be454a69f44b6c288df49e8b99f12553c02",
        "width" : 300
      }, {
        "height" : 64,
        "url" : "https://i.scdn.co/image/67da4d640859db7b9a347b7842dc1dbcee752658",
        "width" : 64
      } ],
      "name" : "Legends",
      "type" : "album",
      "uri" : "spotify:album:3G8EJnYyzkWwAVmNccRvF5"
    }, {
      "album_type" : "album",
      "artists" : [ {
        "external_urls" : {
          "spotify" : "https://open.spotify.com/artist/32WkQRZEVKSzVAAYqukAEA"
        },
        "href" : "https://api.spotify.com/v1/artists/32WkQRZEVKSzVAAYqukAEA",
        "id" : "32WkQRZEVKSzVAAYqukAEA",
        "name" : "Lady Antebellum",
        "type" : "artist",
        "uri" : "spotify:artist:32WkQRZEVKSzVAAYqukAEA"
      } ],
      "available_markets" : [ "CA", "MX", "US" ],
      "external_urls" : {
        "spotify" : "https://open.spotify.com/album/4WZZDzGqjvw4bRwrp56U24"
      },
      "href" : "https://api.spotify.com/v1/albums/4WZZDzGqjvw4bRwrp56U24",
      "id" : "4WZZDzGqjvw4bRwrp56U24",
      "images" : [ {
        "height" : 640,
        "url" : "https://i.scdn.co/image/dac6d83ffab82da75bfbd520a31705650586eed2",
        "width" : 640
      }, {
        "height" : 300,
        "url" : "https://i.scdn.co/image/3ddaffeca2461fe9ef34957376670b6c52cbd169",
        "width" : 300
      }, {
        "height" : 64,
        "url" : "https://i.scdn.co/image/597446d4e1f730e0cb81132abe0284132b332a08",
        "width" : 64
      } ],
      "name" : "Heart Break",
      "type" : "album",
      "uri" : "spotify:album:4WZZDzGqjvw4bRwrp56U24"
    }, {
      "album_type" : "album",
      "artists" : [ {
        "external_urls" : {
          "spotify" : "https://open.spotify.com/artist/6xTk3EK5T9UzudENVvu9YB"
        },
        "href" : "https://api.spotify.com/v1/artists/6xTk3EK5T9UzudENVvu9YB",
        "id" : "6xTk3EK5T9UzudENVvu9YB",
        "name" : "Rancid",
        "type" : "artist",
        "uri" : "spotify:artist:6xTk3EK5T9UzudENVvu9YB"
      } ],
      "available_markets" : [ "AD", "AR", "AT", "AU", "BE", "BG", "BO", "BR", "CA", "CH", "CL", "CO", "CR", "CY", "CZ", "DE", "DK", "DO", "EC", "EE", "ES", "FI", "FR", "GB", "GR", "GT", "HK", "HN", "HU", "ID", "IE", "IS", "IT", "JP", "LI", "LT", "LU", "LV", "MC", "MT", "MX", "MY", "NI", "NL", "NO", "NZ", "PA", "PE", "PH", "PL", "PT", "PY", "SE", "SG", "SK", "SV", "TR", "TW", "US", "UY" ],
      "external_urls" : {
        "spotify" : "https://open.spotify.com/album/0IJ8KmhJausnsCjUvgM5vY"
      },
      "href" : "https://api.spotify.com/v1/albums/0IJ8KmhJausnsCjUvgM5vY",
      "id" : "0IJ8KmhJausnsCjUvgM5vY",
      "images" : [ {
        "height" : 640,
        "url" : "https://i.scdn.co/image/cae0b90c528f2c1e5824164fd699490c74d209b1",
        "width" : 640
      }, {
        "height" : 300,
        "url" : "https://i.scdn.co/image/4803dd3009993e5634cc8338e3e1bcacd386d733",
        "width" : 300
      }, {
        "height" : 64,
        "url" : "https://i.scdn.co/image/028c1e941f74c2f962d80a0186417f69f0c6c8f2",
        "width" : 64
      } ],
      "name" : "Trouble Maker (Deluxe Edition)",
      "type" : "album",
      "uri" : "spotify:album:0IJ8KmhJausnsCjUvgM5vY"
    }, {
      "album_type" : "single",
      "artists" : [ {
        "external_urls" : {
          "spotify" : "https://open.spotify.com/artist/2ht3wxeT69CzyKFChNnNAB"
        },
        "href" : "https://api.spotify.com/v1/artists/2ht3wxeT69CzyKFChNnNAB",
        "id" : "2ht3wxeT69CzyKFChNnNAB",
        "name" : "Big Boi",
        "type" : "artist",
        "uri" : "spotify:artist:2ht3wxeT69CzyKFChNnNAB"
      } ],
      "available_markets" : [ "AD", "AR", "AT", "AU", "BE", "BG", "BO", "BR", "CA", "CH", "CL", "CO", "CR", "CY", "CZ", "DE", "DK", "DO", "EC", "EE", "ES", "FI", "FR", "GB", "GR", "GT", "HK", "HN", "HU", "ID", "IE", "IS", "IT", "JP", "LI", "LT", "LU", "LV", "MC", "MT", "MX", "MY", "NI", "NL", "NO", "NZ", "PA", "PE", "PH", "PL", "PT", "PY", "SE", "SG", "SK", "SV", "TR", "TW", "US", "UY" ],
      "external_urls" : {
        "spotify" : "https://open.spotify.com/album/3aT3gKVnHBVZbOBlB5695W"
      },
      "href" : "https://api.spotify.com/v1/albums/3aT3gKVnHBVZbOBlB5695W",
      "id" : "3aT3gKVnHBVZbOBlB5695W",
      "images" : [ {
        "height" : 640,
        "url" : "https://i.scdn.co/image/0ac6291dd7f7b3d478dbded466654c0463c0519d",
        "width" : 640
      }, {
        "height" : 300,
        "url" : "https://i.scdn.co/image/1658393e65338f56b20e786c19b2b9b9d9072a1a",
        "width" : 300
      }, {
        "height" : 64,
        "url" : "https://i.scdn.co/image/fb7244b88b141e6e26331cf0a6e7231365815fc1",
        "width" : 64
      } ],
      "name" : "In the South",
      "type" : "album",
      "uri" : "spotify:album:3aT3gKVnHBVZbOBlB5695W"
    }, {
      "album_type" : "single",
      "artists" : [ {
        "external_urls" : {
          "spotify" : "https://open.spotify.com/artist/3tVQdUvClmAT7URs9V3rsp"
        },
        "href" : "https://api.spotify.com/v1/artists/3tVQdUvClmAT7URs9V3rsp",
        "id" : "3tVQdUvClmAT7URs9V3rsp",
        "name" : "WizKid",
        "type" : "artist",
        "uri" : "spotify:artist:3tVQdUvClmAT7URs9V3rsp"
      } ],
      "available_markets" : [ "AD", "AR", "AT", "AU", "BE", "BG", "BO", "BR", "CA", "CH", "CL", "CO", "CR", "CY", "CZ", "DE", "DK", "DO", "EC", "EE", "ES", "FI", "FR", "GB", "GR", "GT", "HK", "HN", "HU", "ID", "IE", "IS", "IT", "JP", "LI", "LT", "LU", "LV", "MC", "MT", "MX", "MY", "NI", "NL", "NO", "NZ", "PA", "PE", "PH", "PL", "PT", "PY", "SE", "SG", "SK", "SV", "TR", "TW", "US", "UY" ],
      "external_urls" : {
        "spotify" : "https://open.spotify.com/album/7gTQKqjhzTc6MfMebLRVtY"
      },
      "href" : "https://api.spotify.com/v1/albums/7gTQKqjhzTc6MfMebLRVtY",
      "id" : "7gTQKqjhzTc6MfMebLRVtY",
      "images" : [ {
        "height" : 640,
        "url" : "https://i.scdn.co/image/92ffcd9706e129c013976665785144632fa609d0",
        "width" : 640
      }, {
        "height" : 300,
        "url" : "https://i.scdn.co/image/5ecabdee36c30669d0c73559772c35652cc85919",
        "width" : 300
      }, {
        "height" : 64,
        "url" : "https://i.scdn.co/image/191fa1766636298ce84e23331d22a2fde27a2e99",
        "width" : 64
      } ],
      "name" : "African Bad Gyal",
      "type" : "album",
      "uri" : "spotify:album:7gTQKqjhzTc6MfMebLRVtY"
    }, {
      "album_type" : "single",
      "artists" : [ {
        "external_urls" : {
          "spotify" : "https://open.spotify.com/artist/1CFCsEqKrCyvAFKOATQHiW"
        },
        "href" : "https://api.spotify.com/v1/artists/1CFCsEqKrCyvAFKOATQHiW",
        "id" : "1CFCsEqKrCyvAFKOATQHiW",
        "name" : "Lecrae",
        "type" : "artist",
        "uri" : "spotify:artist:1CFCsEqKrCyvAFKOATQHiW"
      } ],
      "available_markets" : [ "AD", "AR", "AT", "AU", "BE", "BG", "BO", "BR", "CA", "CH", "CL", "CO", "CR", "CY", "CZ", "DE", "DK", "DO", "EC", "EE", "ES", "FI", "FR", "GB", "GR", "GT", "HK", "HN", "HU", "ID", "IE", "IS", "IT", "JP", "LI", "LT", "LU", "LV", "MC", "MT", "MX", "MY", "NI", "NL", "NO", "NZ", "PA", "PE", "PH", "PL", "PT", "PY", "SE", "SG", "SK", "SV", "TR", "TW", "US", "UY" ],
      "external_urls" : {
        "spotify" : "https://open.spotify.com/album/4YOkLua2AMiyZYbocWWVqM"
      },
      "href" : "https://api.spotify.com/v1/albums/4YOkLua2AMiyZYbocWWVqM",
      "id" : "4YOkLua2AMiyZYbocWWVqM",
      "images" : [ {
        "height" : 640,
        "url" : "https://i.scdn.co/image/373dd583c3b7112a231baf50f0999dbfab44697a",
        "width" : 640
      }, {
        "height" : 300,
        "url" : "https://i.scdn.co/image/867c320415a0446ce0f047e2e0fd49efc2217bf0",
        "width" : 300
      }, {
        "height" : 64,
        "url" : "https://i.scdn.co/image/4231b12c08c5b2638cae5ce2bb03f7e3dd1abec5",
        "width" : 64
      } ],
      "name" : "I'll Find You",
      "type" : "album",
      "uri" : "spotify:album:4YOkLua2AMiyZYbocWWVqM"
    }, {
      "album_type" : "single",
      "artists" : [ {
        "external_urls" : {
          "spotify" : "https://open.spotify.com/artist/1CoZyIx7UvdxT5c8UkMzHd"
        },
        "href" : "https://api.spotify.com/v1/artists/1CoZyIx7UvdxT5c8UkMzHd",
        "id" : "1CoZyIx7UvdxT5c8UkMzHd",
        "name" : "Jorja Smith",
        "type" : "artist",
        "uri" : "spotify:artist:1CoZyIx7UvdxT5c8UkMzHd"
      } ],
      "available_markets" : [ "AD", "AR", "AT", "AU", "BE", "BG", "BO", "BR", "CA", "CH", "CL", "CO", "CR", "CY", "CZ", "DE", "DK", "DO", "EC", "EE", "ES", "FI", "FR", "GB", "GR", "GT", "HK", "HN", "HU", "ID", "IE", "IS", "IT", "JP", "LI", "LT", "LU", "LV", "MC", "MT", "MX", "MY", "NI", "NL", "NO", "NZ", "PA", "PE", "PH", "PL", "PT", "PY", "SE", "SG", "SK", "SV", "TR", "TW", "US", "UY" ],
      "external_urls" : {
        "spotify" : "https://open.spotify.com/album/1A4eFcl7VVqXDpzdVzrF7g"
      },
      "href" : "https://api.spotify.com/v1/albums/1A4eFcl7VVqXDpzdVzrF7g",
      "id" : "1A4eFcl7VVqXDpzdVzrF7g",
      "images" : [ {
        "height" : 640,
        "url" : "https://i.scdn.co/image/a7b12ac1c2f18e5a826c17c7b7fa30e2c157bf58",
        "width" : 640
      }, {
        "height" : 300,
        "url" : "https://i.scdn.co/image/e11646e5ace4f896c43a651cf9627535ce539573",
        "width" : 300
      }, {
        "height" : 64,
        "url" : "https://i.scdn.co/image/99521bac0ca0c4aa187d466e70bc2b291427f3db",
        "width" : 64
      } ],
      "name" : "Teenage Fantasy",
      "type" : "album",
      "uri" : "spotify:album:1A4eFcl7VVqXDpzdVzrF7g"
    }, {
      "album_type" : "single",
      "artists" : [ {
        "external_urls" : {
          "spotify" : "https://open.spotify.com/artist/5DlVR9AUTrBgXWN4wiy5aL"
        },
        "href" : "https://api.spotify.com/v1/artists/5DlVR9AUTrBgXWN4wiy5aL",
        "id" : "5DlVR9AUTrBgXWN4wiy5aL",
        "name" : "Luis Coronel",
        "type" : "artist",
        "uri" : "spotify:artist:5DlVR9AUTrBgXWN4wiy5aL"
      } ],
      "available_markets" : [ "AD", "AR", "AT", "AU", "BE", "BG", "BO", "BR", "CA", "CH", "CL", "CO", "CR", "CY", "CZ", "DE", "DK", "DO", "EC", "EE", "ES", "FI", "FR", "GB", "GR", "GT", "HK", "HN", "HU", "ID", "IE", "IS", "IT", "JP", "LI", "LT", "LU", "LV", "MC", "MT", "MX", "MY", "NI", "NL", "NO", "NZ", "PA", "PE", "PH", "PL", "PT", "PY", "SE", "SG", "SK", "SV", "TR", "TW", "US", "UY" ],
      "external_urls" : {
        "spotify" : "https://open.spotify.com/album/35et4DWqzvIk2D5y8h9y4G"
      },
      "href" : "https://api.spotify.com/v1/albums/35et4DWqzvIk2D5y8h9y4G",
      "id" : "35et4DWqzvIk2D5y8h9y4G",
      "images" : [ {
        "height" : 640,
        "url" : "https://i.scdn.co/image/34456ca43a9ae66afac35972de1e36e7e51137fc",
        "width" : 640
      }, {
        "height" : 300,
        "url" : "https://i.scdn.co/image/c80bef2075847a3769e40e3e9afb17ecdee52527",
        "width" : 300
      }, {
        "height" : 64,
        "url" : "https://i.scdn.co/image/48bfff20a90da81c20a0e910ef65ef3aab223851",
        "width" : 64
      } ],
      "name" : "Me Voy de Rumba",
      "type" : "album",
      "uri" : "spotify:album:35et4DWqzvIk2D5y8h9y4G"
    }, {
      "album_type" : "single",
      "artists" : [ {
        "external_urls" : {
          "spotify" : "https://open.spotify.com/artist/4IVAbR2w4JJNJDDRFP3E83"
        },
        "href" : "https://api.spotify.com/v1/artists/4IVAbR2w4JJNJDDRFP3E83",
        "id" : "4IVAbR2w4JJNJDDRFP3E83",
        "name" : "6LACK",
        "type" : "artist",
        "uri" : "spotify:artist:4IVAbR2w4JJNJDDRFP3E83"
      } ],
      "available_markets" : [ "CA", "MX", "US" ],
      "external_urls" : {
        "spotify" : "https://open.spotify.com/album/3Yvipkm19cAQj9IxIyd0uq"
      },
      "href" : "https://api.spotify.com/v1/albums/3Yvipkm19cAQj9IxIyd0uq",
      "id" : "3Yvipkm19cAQj9IxIyd0uq",
      "images" : [ {
        "height" : 640,
        "url" : "https://i.scdn.co/image/b0a62f6293bdbd66935abc4ad142cb6626f9ed94",
        "width" : 640
      }, {
        "height" : 300,
        "url" : "https://i.scdn.co/image/c2b1d9774c5436cedf286a1d21f85197a711322f",
        "width" : 300
      }, {
        "height" : 64,
        "url" : "https://i.scdn.co/image/a0ecf0fb61e1aa42f2f51bb983862313caabaeaf",
        "width" : 64
      } ],
      "name" : "That Far",
      "type" : "album",
      "uri" : "spotify:album:3Yvipkm19cAQj9IxIyd0uq"
    }, {
      "album_type" : "single",
      "artists" : [ {
        "external_urls" : {
          "spotify" : "https://open.spotify.com/artist/5ZS223C6JyBfXasXxrRqOk"
        },
        "href" : "https://api.spotify.com/v1/artists/5ZS223C6JyBfXasXxrRqOk",
        "id" : "5ZS223C6JyBfXasXxrRqOk",
        "name" : "Jhene Aiko",
        "type" : "artist",
        "uri" : "spotify:artist:5ZS223C6JyBfXasXxrRqOk"
      } ],
      "available_markets" : [ "CA", "MX", "US" ],
      "external_urls" : {
        "spotify" : "https://open.spotify.com/album/5YTGqtZKziSY9OhXVP73zn"
      },
      "href" : "https://api.spotify.com/v1/albums/5YTGqtZKziSY9OhXVP73zn",
      "id" : "5YTGqtZKziSY9OhXVP73zn",
      "images" : [ {
        "height" : 640,
        "url" : "https://i.scdn.co/image/1e9f4b1e8fc3ca3734d9455e9748b4f5917deded",
        "width" : 640
      }, {
        "height" : 300,
        "url" : "https://i.scdn.co/image/2776e4b8130e880c9ca7f93e73a40e7d7dd4823c",
        "width" : 300
      }, {
        "height" : 64,
        "url" : "https://i.scdn.co/image/c96593866d4c9dfc1a8ff79d14b8a730bf013342",
        "width" : 64
      } ],
      "name" : "While We're Young",
      "type" : "album",
      "uri" : "spotify:album:5YTGqtZKziSY9OhXVP73zn"
    }, {
      "album_type" : "album",
      "artists" : [ {
        "external_urls" : {
          "spotify" : "https://open.spotify.com/artist/06HL4z0CvFAxyc27GXpf02"
        },
        "href" : "https://api.spotify.com/v1/artists/06HL4z0CvFAxyc27GXpf02",
        "id" : "06HL4z0CvFAxyc27GXpf02",
        "name" : "Taylor Swift",
        "type" : "artist",
        "uri" : "spotify:artist:06HL4z0CvFAxyc27GXpf02"
      } ],
      "available_markets" : [ "CA", "MX", "US" ],
      "external_urls" : {
        "spotify" : "https://open.spotify.com/album/34OkZVpuzBa9y40DCy0LPR"
      },
      "href" : "https://api.spotify.com/v1/albums/34OkZVpuzBa9y40DCy0LPR",
      "id" : "34OkZVpuzBa9y40DCy0LPR",
      "images" : [ {
        "height" : 640,
        "url" : "https://i.scdn.co/image/8d7a2af11d80c5d73bb8c75298436daf61f28144",
        "width" : 640
      }, {
        "height" : 300,
        "url" : "https://i.scdn.co/image/aef070d664a4637af519d074541adf11d8231bb8",
        "width" : 300
      }, {
        "height" : 64,
        "url" : "https://i.scdn.co/image/b6140df25ed751b241ae681df451ed0aeef43ac0",
        "width" : 64
      } ],
      "name" : "1989 (Deluxe Edition)",
      "type" : "album",
      "uri" : "spotify:album:34OkZVpuzBa9y40DCy0LPR"
    } ],
    "limit" : 20,
    "next" : "https://api.spotify.com/v1/browse/new-releases?offset=20&limit=20",
    "offset" : 0,
    "previous" : null,
    "total" : 500
  }
}