{
  "albums" : {
    "href" : "https://api.spotify.com/v1/browse/new-releases?country=GB&offset=1&limit=2",
    "items" : [ {
      "album_type" : "album",
      "artists" : [ {
        "external_urls" : {
          "spotify" : "https://open.spotify.com/artist/3Bd1cgCjtCI32PYvDC3ynO"
        },
        "href" : "https://api.spotify.com/v1/artists/3Bd1cgCjtCI32PYvDC3ynO",
        "id" : "3Bd1cgCjtCI32PYvDC3ynO",
        "name" : "London Grammar",
        "type" : "artist",
        "uri" : "spotify:artist:3Bd1cgCjtCI32PYvDC3ynO"
      } ],
      "available_markets" : [ "CA", "DO", "GB", "HK", "ID", "IE", "MY", "PH", "SG", "TW", "US" ],
      "external_urls" : {
        "spotify" : "https://open.spotify.com/album/2czuN6tZcR5ebpuK9A1Vur"
      },
      "href" : "https://api.spotify.com/v1/albums/2czuN6tZcR5ebpuK9A1Vur",
      "id" : "2czuN6tZcR5ebpuK9A1Vur",
      "images" : [ {
        "height" : 640,
        "url" : "https://i.scdn.co/image/679ee85d3aeec3ef8242cf9a7552e671a6420a79",
        "width" : 640
      }, {
        "height" : 300,
        "url" : "https://i.scdn.co/image/10eacff37935579b294f88cb001fa0d402ce5976",
        "width" : 300
      }, {
        "height" : 64,
        "url" : "https://i.scdn.co/image/eae7c916ae769de988977450b0e3249b23f0783c",
        "width" : 64
      } ],
      "name" : "Truth Is a Beautiful Thing (Deluxe)",
      "type" : "album",
      "uri" : "spotify:album:2czuN6tZcR5ebpuK9A1Vur"
    }, {
      "album_type" : "single",
      "artists" : [ {
        "external_urls" : {
          "spotify" : "https://open.spotify.com/artist/6eUKZXaKkcviH0Ku9w2n3V"
        },
        "href" : "https://api.spotify.com/v1/artists/6eUKZXaKkcviH0Ku9w2n3V",
        "id" : "6eUKZXaKkcviH0Ku9w2n3V",
        "name" : "Ed Sheeran",
        "type" : "artist",
        "uri" : "spotify:artist:6eUKZXaKkcviH0Ku9w2n3V"
      } ],
      "available_markets" : [ "AD", "AR", "AT", "AU", "BE", "BG", "BO", "BR", "CA", "CH", "CL", "CO", "CR", "CY", "CZ", "DE", "DK", "DO", "EC", "EE", "ES", "FI", "FR", "GB", "GR", "GT", "HK", "HN", "HU", "ID", "IE", "IS", "IT", "JP", "LI", "LT", "LU", "LV", "MC", "MT", "MX", "MY", "NI", "NL", "NO", "NZ", "PA", "PE", "PH", "PL", "PT", "PY", "SE", "SG", "SK", "SV", "TR", "TW", "US", "UY" ],
      "external_urls" : {
        "spotify" : "https://open.spotify.com/album/14mR6XKPmsxzvOYCkqubJF"
      },
      "href" : "https://api.spotify.com/v1/albums/14mR6XKPmsxzvOYCkqubJF",
      "id" : "14mR6XKPmsxzvOYCkqubJF",
      "images" : [ {
        "height" : 640,
        "url" : "https://i.scdn.co/image/8ab591ed567f5c2546195ff2d19fa791dc1c0aab",
        "width" : 640
      }, {
        "height" : 300,
        "url" : "https://i.scdn.co/image/cdd3abd37afcc31ac0b92bb268355d844a6bb7ff",
        "width" : 300
      }, {
        "height" : 64,
        "url" : "https://i.scdn.co/image/6a90295e1d739b3d939ae5a81187f790d22055f5",
        "width" : 64
      } ],
      "name" : "Spotify Singles",
      "type" : "album",
      "uri" : "spotify:album:14mR6XKPmsxzvOYCkqubJF"
    } ],
    "limit" : 2,
    "next" : "https://api.spotify.com/v1/browse/new-releases?country=GB&offset=3&limit=2",
    "offset" : 1,
    "previous" : "https://api.spotify.com/v1/browse/new-releases?country=GB&offset=0&limit=2",
    "total" : 500
  }
}