{
  "artists": {
    "items": [
      {
        "external_urls": {
          "spotify": "https://open.spotify.com/artist/0hRijdwO8UsJMudc3476ma"
        },
        "followers": {
          "href": null,
          "total": 96902
        },
        "genres": [
          "industrial rock",
          "soundtrack"
        ],
        "href": "https://api.spotify.com/v1/artists/0hRijdwO8UsJMudc3476ma",
        "id": "0hRijdwO8UsJMudc3476ma",
        "images": [
          {
            "height": 640,
            "url": "https://i.scdn.co/image/ab6761610000e5eb241e6452a528f148e5d3cbe0",
            "width": 640
          },
          {
            "height": 320,
            "url": "https://i.scdn.co/image/ab67616100005174241e6452a528f148e5d3cbe0",
            "width": 320
          },
          {
            "height": 160,
            "url": "https://i.scdn.co/image/ab6761610000f178241e6452a528f148e5d3cbe0",
            "width": 160
          }
        ],
        "name": "Trent Reznor",
        "popularity": 46,
        "type": "artist",
        "uri": "spotify:artist:0hRijdwO8UsJMudc3476ma"
      },
      {
        "external_urls": {
          "spotify": "https://open.spotify.com/artist/0k17h0D3J5VfsdmQ1iZtE9"
        },
        "followers": {
          "href": null,
          "total": 15071652
        },
        "genres": [
          "album rock",
          "art rock",
          "classic rock",
          "progressive rock",
          "psychedelic rock",
          "rock",
          "symphonic rock"
        ],
        "href": "https://api.spotify.com/v1/artists/0k17h0D3J5VfsdmQ1iZtE9",
        "id": "0k17h0D3J5VfsdmQ1iZtE9",
        "images": [
          {
            "height": 977,
            "url": "https://i.scdn.co/image/e69f71e2be4b67b82af90fb8e9d805715e0684fa",
            "width": 1000
          },
          {
            "height": 625,
            "url": "https://i.scdn.co/image/d011c95081cd9a329e506abd7ded47535d524a07",
            "width": 640
          },
          {
            "height": 195,
            "url": "https://i.scdn.co/image/f0a39a8a196a87a7236bdcf8a8708f6d5d3547cc",
            "width": 200
          },
          {
            "height": 63,
            "url": "https://i.scdn.co/image/ec1fb7127168dbaa962404031409c5a293b95ec6",
            "width": 64
          }
        ],
        "name": "Pink Floyd",
        "popularity": 83,
        "type": "artist",
        "uri": "spotify:artist:0k17h0D3J5VfsdmQ1iZtE9"
      },
      {
        "external_urls": {
          "spotify": "https://open.spotify.com/artist/0kbYTNQb4Pb1rPbbaF0pT4"
        },
        "followers": {
          "href": null,
          "total": 2142652
        },
        "genres": [
          "cool jazz",
          "hard bop",
          "jazz",
          "jazz fusion",
          "jazz trumpet"
        ],
        "href": "https://api.spotify.com/v1/artists/0kbYTNQb4Pb1rPbbaF0pT4",
        "id": "0kbYTNQb4Pb1rPbbaF0pT4",
        "images": [
          {
            "height": 1000,
            "url": "https://i.scdn.co/image/423e826b3c1b23930a255d7cbc2daf733f795507",
            "width": 1000
          },
          {
            "height": 640,
            "url": "https://i.scdn.co/image/a318c54208af38364d131a54ced2416423696018",
            "width": 640
          },
          {
            "height": 200,
            "url": "https://i.scdn.co/image/8496e6ea230dd47311d85dcf860015792f5ada42",
            "width": 200
          },
          {
            "height": 64,
            "url": "https://i.scdn.co/image/b1af952a7fb8ac2c4467868d61b5752fc1a01cf0",
            "width": 64
          }
        ],
        "name": "Miles Davis",
        "popularity": 66,
        "type": "artist",
        "uri": "spotify:artist:0kbYTNQb4Pb1rPbbaF0pT4"
      }
    ],
    "next": "https://api.spotify.com/v1/me/following?type=artist&after=0kbYTNQb4Pb1rPbbaF0pT4&limit=3",
    "total": 191,
    "cursors": {
      "after": "0kbYTNQb4Pb1rPbbaF0pT4"
    },
    "limit": 3,
    "href": "https://api.spotify.com/v1/me/following?type=artist&after=0f8MDDzIc6M4uH1xH0o0gy&limit=3"
  }
}