{
  "href": "https://api.spotify.com/v1/users/%7Bf_%7D/playlists?offset=3&limit=4",
  "items": [
    {
      "collaborative": false,
      "external_urls": {
        "spotify": "http://open.spotify.com/user/%7Bf_%7D/playlist/7Ay64nYKQPPUAe35T56Qvl"
      },
      "href": "https://api.spotify.com/v1/users/%7Bf_%7D/playlists/7Ay64nYKQPPUAe35T56Qvl",
      "id": "7Ay64nYKQPPUAe35T56Qvl",
      "images": [],
      "name": "Aphex Twin – Melodies from Mars",
      "owner": {
        "external_urls": {
          "spotify": "http://open.spotify.com/user/%7Bf_%7D"
        },
        "href": "https://api.spotify.com/v1/users/%7Bf_%7D",
        "id": "{f_}",
        "type": "user",
        "uri": "spotify:user:%7Bf_%7D"
      },
      "public": true,
      "snapshot_id": "I+e+CPRRo6dFrZOd99uDulssBNrWs961NFEwISlQoRg/WfYrcXMibfOH+B/Mm6Ns",
      "tracks": {
        "href": "https://api.spotify.com/v1/users/%7Bf_%7D/playlists/7Ay64nYKQPPUAe35T56Qvl/tracks",
        "total": 12
      },
      "type": "playlist",
      "uri": "spotify:user:%7Bf_%7D:playlist:7Ay64nYKQPPUAe35T56Qvl"
    },
    {
      "collaborative": false,
      "external_urls": {
        "spotify": "http://open.spotify.com/user/hherbzilla/playlist/1v2lOhxJEo0vGWIjBZr0Fd"
      },
      "href": "https://api.spotify.com/v1/users/hherbzilla/playlists/1v2lOhxJEo0vGWIjBZr0Fd",
      "id": "1v2lOhxJEo0vGWIjBZr0Fd",
      "images": [
        {
          "height": 640,
          "url": "https://mosaic.scdn.co/640/195566f205735d9243c3355e0e80eabcd4d234e275673d5b278777c5c88adb9e9562c8a73df704f60beb85a35a4ef3242432207f1a323151db693bce636e23d3aead9dc1b9d21050e3b8b939035519ce",
          "width": 640
        },
        {
          "height": 300,
          "url": "https://mosaic.scdn.co/300/195566f205735d9243c3355e0e80eabcd4d234e275673d5b278777c5c88adb9e9562c8a73df704f60beb85a35a4ef3242432207f1a323151db693bce636e23d3aead9dc1b9d21050e3b8b939035519ce",
          "width": 300
        },
        {
          "height": 60,
          "url": "https://mosaic.scdn.co/60/195566f205735d9243c3355e0e80eabcd4d234e275673d5b278777c5c88adb9e9562c8a73df704f60beb85a35a4ef3242432207f1a323151db693bce636e23d3aead9dc1b9d21050e3b8b939035519ce",
          "width": 60
        }
      ],
      "name": "Silicon Valley -Music from the HBO Series",
      "owner": {
        "display_name": "Herb Hernandez",
        "external_urls": {
          "spotify": "http://open.spotify.com/user/hherbzilla"
        },
        "href": "https://api.spotify.com/v1/users/hherbzilla",
        "id": "hherbzilla",
        "type": "user",
        "uri": "spotify:user:hherbzilla"
      },
      "public": true,
      "snapshot_id": "5G0ZmpM4GmZoi9N+6pzQ3ILElwRoE7zHvazZzdsfcgPZkCu7GqfzRqVazGuFdeeC",
      "tracks": {
        "href": "https://api.spotify.com/v1/users/hherbzilla/playlists/1v2lOhxJEo0vGWIjBZr0Fd/tracks",
        "total": 64
      },
      "type": "playlist",
      "uri": "spotify:user:hherbzilla:playlist:1v2lOhxJEo0vGWIjBZr0Fd"
    },
    {
      "collaborative": false,
      "external_urls": {
        "spotify": "http://open.spotify.com/user/optimusalive/playlist/71vi23XAag8ogqQaAVjuOo"
      },
      "href": "https://api.spotify.com/v1/users/optimusalive/playlists/71vi23XAag8ogqQaAVjuOo",
      "id": "71vi23XAag8ogqQaAVjuOo",
      "images": [
        {
          "height": null,
          "url": "https://pl.scdn.co/images/pl/default/be884c378d39994fd103d65ee2ae5da571283a56",
          "width": null
        }
      ],
      "name": "NOS Alive '17",
      "owner": {
        "display_name": "NOS Alive",
        "external_urls": {
          "spotify": "http://open.spotify.com/user/optimusalive"
        },
        "href": "https://api.spotify.com/v1/users/optimusalive",
        "id": "optimusalive",
        "type": "user",
        "uri": "spotify:user:optimusalive"
      },
      "public": true,
      "snapshot_id": "HjmfI5Ak74JdZdTQtVS5CKq6NLYrvrJcBB/S2kBca/sl7KclqUWrJEmZvxXTIJBT",
      "tracks": {
        "href": "https://api.spotify.com/v1/users/optimusalive/playlists/71vi23XAag8ogqQaAVjuOo/tracks",
        "total": 112
      },
      "type": "playlist",
      "uri": "spotify:user:optimusalive:playlist:71vi23XAag8ogqQaAVjuOo"
    },
    {
      "collaborative": false,
      "external_urls": {
        "spotify": "http://open.spotify.com/user/%7Bf_%7D/playlist/1kZ3sw7dXPbQYmjn5TF1W9"
      },
      "href": "https://api.spotify.com/v1/users/%7Bf_%7D/playlists/1kZ3sw7dXPbQYmjn5TF1W9",
      "id": "1kZ3sw7dXPbQYmjn5TF1W9",
      "images": [
        {
          "height": null,
          "url": "https://pl.scdn.co/images/pl/default/b3f11524ab0083a7598361ca911a1e60a10e6ab7",
          "width": null
        }
      ],
      "name": "Gangsta Rap",
      "owner": {
        "external_urls": {
          "spotify": "http://open.spotify.com/user/%7Bf_%7D"
        },
        "href": "https://api.spotify.com/v1/users/%7Bf_%7D",
        "id": "{f_}",
        "type": "user",
        "uri": "spotify:user:%7Bf_%7D"
      },
      "public": true,
      "snapshot_id": "GK2kP18bmbbvCnF7UNZHTixymdheHFBZviF9CVxnLO2LQKJGPPowBklAhXcTSO9g",
      "tracks": {
        "href": "https://api.spotify.com/v1/users/%7Bf_%7D/playlists/1kZ3sw7dXPbQYmjn5TF1W9/tracks",
        "total": 42
      },
      "type": "playlist",
      "uri": "spotify:user:%7Bf_%7D:playlist:1kZ3sw7dXPbQYmjn5TF1W9"
    }
  ],
  "limit": 4,
  "next": "https://api.spotify.com/v1/users/%7Bf_%7D/playlists?offset=7&limit=4",
  "offset": 3,
  "previous": "https://api.spotify.com/v1/users/%7Bf_%7D/playlists?offset=0&limit=4",
  "total": 13
}